{
  "page": 1,
  "total_results": 115,
  "total_pages": 6,
  "results": [
    {
      "popularity": 20.385,
      "vote_count": 4157,
      "video": false,
      "poster_path": "\/kBf3g9crrADGMc2AMAMlLBgSm2h.jpg",
      "id": 268,
      "adult": false,
      "backdrop_path": "\/2blmxp2pr4BhwQr74AdCfwgfMOb.jpg",
      "original_language": "en",
      "original_title": "Batman",
      "genre_ids": [
        28,
        14
      ],
      "title": "Batman",
      "vote_average": 7.1,
      "overview": "Em Gotham City o milionário Bruce Wayne (Michael Keaton), que quando jovem teve os pais assassinados por bandidos, resolve combater o crime como Batman, o Homem-Morcego. Mas chega o dia em que o vilão Coringa (Jack Nicholson) decide dominar a cidade e se torna um grande desafio para o super-herói.",
      "release_date": "1989-10-26"
    },
    {
      "popularity": 63.524,
      "id": 272,
      "video": false,
      "vote_count": 12931,
      "vote_average": 7.6,
      "title": "Batman Begins",
      "release_date": "2005-06-17",
      "original_language": "en",
      "original_title": "Batman Begins",
      "genre_ids": [
        28,
        80,
        18
      ],
      "backdrop_path": "\/9myrRcegWGGp24mpVfkD4zhUfhi.jpg",
      "adult": false,
      "overview": "Marcado pelo assassinato de seus pais quando ainda era criança, o milionário Bruce Wayne (Christian Bale) decide viajar pelo mundo em busca de encontrar meios que lhe permitam combater a injustiça e provocar medo em seus adversários. Após retornar a Gotham City, sua cidade-natal, ele idealiza seu alter-ego: Batman, um justiceiro mascarado que usa força, inteligência e um arsenal tecnológico para combater o crime.",
      "poster_path": "\/mv54zx0383MOo6GdEamxry6hON6.jpg"
    },
    {
      "popularity": 18.618,
      "vote_count": 2865,
      "video": false,
      "poster_path": "\/79AYCcxw3kSKbhGpx1LiqaCAbwo.jpg",
      "id": 415,
      "adult": false,
      "backdrop_path": "\/GesgsgLb2e3q7sKRgRCAQAOrXc.jpg",
      "original_language": "en",
      "original_title": "Batman & Robin",
      "genre_ids": [
        28,
        35,
        14,
        878
      ],
      "title": "Batman & Robin",
      "vote_average": 4.2,
      "overview": "A dupla dinâmica enfrenta uma terrível dupla de vilões: o gélido Mr. Freeze (Arnold Schwarzenegger) e a delicada botânica que, ao sofrer um acidente, transforma-se na perigosa e vingativa Hera Venenosa (Uma Thurman). Mas, para poder livrar Gotham City das garras dos vilões, Batman (George Clooney) e Robin (Chris O'Donnell) contam com uma nova companheira, a Batgirl (Alicia Silverstone).",
      "release_date": "1997-07-04"
    },
    {
      "popularity": 22.237,
      "id": 364,
      "video": false,
      "vote_count": 3463,
      "vote_average": 6.8,
      "title": "Batman: O Retorno",
      "release_date": "1992-06-19",
      "original_language": "en",
      "original_title": "Batman Returns",
      "genre_ids": [
        28,
        14
      ],
      "backdrop_path": "\/wNIE5dpkiHU2csDRptMutFjAGiV.jpg",
      "adult": false,
      "overview": "Com o objetivo de manipular Gotham City, um milionário (Christopher Walken) tenta transformar o Pinguim (Danny DeVito), um ser deformado que tinha sido abandonado ainda bebê nos esgotos, em prefeito da cidade. Como se isto não bastasse, surge a Mulher-Gato (Michelle Pfeiffer) que, apesar de ser linda e sedutora, também tem dupla personalidade, em razão de problemas no passado. Ambos se tornam verdadeiros pesadelos para Batman no presente.",
      "poster_path": "\/pZC9pGgscKTAGbgdtelanN1N0fJ.jpg"
    },
    {
      "popularity": 19.164,
      "vote_count": 168,
      "video": false,
      "poster_path": "\/5fepR3N7FtTaZp5aiLrrYiQUH0A.jpg",
      "id": 537056,
      "adult": false,
      "backdrop_path": "\/eevJuYAitUe6VwFN29aFwzeyeTr.jpg",
      "original_language": "en",
      "original_title": "Batman: Hush",
      "genre_ids": [
        28,
        16,
        80,
        9648
      ],
      "title": "Batman: Silêncio",
      "vote_average": 7,
      "overview": "O passado de Batman começa a se desenrolar, dá-se início a uma corrida para o Cavaleiro das Trevas solucionar os jogos mortais do Silêncio. O misterioso vilão conhecido como Silêncio está determinado a destruir tanto a carreira de combatente ao crime de Batman, quanto a vida pessoal de Bruce Wayne",
      "release_date": "2019-07-19"
    },
    {
      "popularity": 20.716,
      "vote_count": 2968,
      "video": false,
      "poster_path": "\/pLJ6ixuNelz8U03peScArG4XQAj.jpg",
      "id": 414,
      "adult": false,
      "backdrop_path": "\/gVTTtYgKIBurNvkGiGC6735b8y.jpg",
      "original_language": "en",
      "original_title": "Batman Forever",
      "genre_ids": [
        28,
        80,
        14
      ],
      "title": "Batman Eternamente",
      "vote_average": 5.3,
      "overview": "Duas-Caras e Charada, dois excêntricos bandidos, decidem descobrir a identidade do Homem-Morcego para depois matá-lo. Este por sua vez recebe a ajuda de um jovem que tem sede de vingança, por ter perdido a família em um acidente provocado exatamente pelo Duas-Caras.",
      "release_date": "1995-07-07"
    },
    {
      "popularity": 8.644,
      "vote_count": 394,
      "video": false,
      "poster_path": "\/toD1gxuKAuzh9qdXxpg7AFSX7aY.jpg",
      "id": 2661,
      "adult": false,
      "backdrop_path": "\/5gcdof2PKH1emllBdN1VXU706IP.jpg",
      "original_language": "en",
      "original_title": "Batman",
      "genre_ids": [
        12,
        35,
        80,
        878,
        10751
      ],
      "title": "Batman - O Homem Morcego",
      "vote_average": 6.2,
      "overview": "Em Gotham City, Charada (Frank Gorshin), Pinguim (Burgess Meredith), Coringa (Cesar Romero) e Mulher-Gato (Lee Meriweather) roubam uma invenção secreta e planejam usá-la de forma maléfica. Além disto, planejam também destruir o Homem-Morcego e o Menino-Prodígio.",
      "release_date": "1966-07-30"
    },
    {
      "popularity": 31.282,
      "vote_count": 12493,
      "video": false,
      "poster_path": "\/9ORTc9UUTtRq7pssuu5OXNG3W5m.jpg",
      "id": 209112,
      "adult": false,
      "backdrop_path": "\/vsjBeMPZtyB7yNsYY56XYxifaQZ.jpg",
      "original_language": "en",
      "original_title": "Batman v Superman: Dawn of Justice",
      "genre_ids": [
        28,
        12,
        14
      ],
      "title": "Batman vs Superman: A Origem da Justiça",
      "vote_average": 5.8,
      "overview": "Temendo que as ações de um super-herói divino não tenham sido controladas, o formidável e vigoroso vigilante de Gotham City enfrenta o salvador mais reverenciado e moderno de Metrópolis, enquanto o mundo luta com o tipo de herói que realmente precisa. E com Batman e Superman em guerra um com o outro, uma nova ameaça rapidamente surge, colocando a humanidade em maior perigo do que nunca antes.",
      "release_date": "2016-03-24"
    },
    {
      "popularity": 10.982,
      "id": 408648,
      "video": false,
      "vote_count": 320,
      "vote_average": 5.9,
      "title": "Batman e Arlequina: Pancadas e Risadas",
      "release_date": "2017-08-14",
      "original_language": "en",
      "original_title": "Batman and Harley Quinn",
      "genre_ids": [
        12,
        28,
        16,
        878
      ],
      "backdrop_path": "\/2JVnUtyUKbQm165cXUF9r5iVPDo.jpg",
      "adult": false,
      "overview": "Batman e Asa Noturna precisam se juntar com Harley Quinn, a ex-namorada do Coringa, para conseguirem evitar uma catástrofe global que está sendo planejada pela Hera Venenosa e o cientista Jason Woodrue, também conhecido como Mestre das Plantas ou Homem Florônico.",
      "poster_path": "\/5gbHrtTCEZv0kYYyZ2kmLcBtCet.jpg"
    },
    {
      "popularity": 13.856,
      "id": 324849,
      "video": false,
      "vote_count": 3060,
      "vote_average": 7.2,
      "title": "Lego Batman: O Filme",
      "release_date": "2017-02-09",
      "original_language": "en",
      "original_title": "The Lego Batman Movie",
      "genre_ids": [
        28,
        16,
        35,
        10751,
        14
      ],
      "backdrop_path": "\/jqnbac3oind5VOcAN0mTXyapOGh.jpg",
      "adult": false,
      "overview": "No spin-off de Uma Aventura Lego, Batman (Will Arnett) descobre que adotou acidentalmente um garoto órfão. Ele se torna ninguém menos que seu ajudante Robin (Michael Cera). A dupla formada pelo arrogante Homem-Morcego e o seu empolgado ajudante deve combater o crime e prender o Coringa (Zach Galifianakis).",
      "poster_path": "\/qVf6lTFzDsBZUbYbk8m9dk9SipX.jpg"
    },
    {
      "popularity": 16.175,
      "vote_count": 0,
      "video": false,
      "poster_path": "\/tRe69Ip45keWWR6rBtTtZzfOEoE.jpg",
      "id": 414906,
      "adult": false,
      "backdrop_path": null,
      "original_language": "en",
      "original_title": "The Batman",
      "genre_ids": [
        28,
        80
      ],
      "title": "The Batman",
      "vote_average": 0,
      "overview": "",
      "release_date": "2021-06-23"
    },
    {
      "popularity": 10.398,
      "vote_count": 296,
      "video": false,
      "poster_path": "\/gwvgGaZZnHgKTJtewxLrSCoz1QN.jpg",
      "id": 13851,
      "adult": false,
      "backdrop_path": "\/cAW1NAahXhBUFJZgicBIGPs2OkZ.jpg",
      "original_language": "en",
      "original_title": "Batman: Gotham Knight",
      "genre_ids": [
        28,
        12,
        16
      ],
      "title": "Batman: O Cavaleiro de Gotham",
      "vote_average": 6.6,
      "overview": "Dos produtores de Batman Begins e de Batman – O Cavaleiro das Trevas, o grande lançamento de cinema do ano, vem esta maravilhosa interpretação da transição do Homem-Morcego, de inciante à Cavaleiro das Trevas. Seis histórias interrelacionadas revelam as primeiras aventuras de Bruce Wayne como Batman e os passos que ele tomou até se transformar no incansável vingador de Gotham City. Estas incríveis aventuras colocam Batman contra o amedrontador Espantalho e dois outros vilões jamais encarados antes: o ensandecido Killer Croc e o pistoleiro que nunca erra conhecido como Deadshot",
      "release_date": "2008-07-03"
    },
    {
      "popularity": 27.544,
      "vote_count": 769,
      "video": false,
      "poster_path": "\/tnEjYpYDzeXazK3WOfCavhZAzkG.jpg",
      "id": 123025,
      "adult": false,
      "backdrop_path": "\/a6pB1w4lwp0WeTRQk9Q2K1F9W34.jpg",
      "original_language": "en",
      "original_title": "Batman: The Dark Knight Returns, Part 1",
      "genre_ids": [
        28,
        16,
        9648
      ],
      "title": "Batman: O Cavaleiro das Trevas, Parte 1",
      "vote_average": 7.7,
      "overview": "Mais uma noite cai sobre Gotham City e, com a chegada da escuridão, o crime e a vilania surgem em meio às sombras. Os dias do Batman e outros nobres super-heróis são somente memórias desaparecendo; a violência e o desespero são agora os arautos do nosso tempo. Mas um evento promoverá uma drástica mudança: quando Harvey “Duas Caras” Dent troca sua reabilitação por uma nova descida ao submundo do crime, um idoso e desgastado Bruce Wayne usa a máscara e capa mais uma vez. Com um elenco estelar de dubladores originais, incluindo Peter Weller, Ariel Winter e David Selby, esta indômita lenda da DC Comics ganha vida novamente para encarar batalhas esquecíveis, perseguições de tirar o fôlego e oferecer uma promessa de um melhor futuro para a humanidade, porque não existe lugar para os criminosos se esconderem quando o Cavaleiro das Trevas retorna.",
      "release_date": "2012-09-25"
    },
    {
      "popularity": 10.372,
      "vote_count": 508,
      "video": false,
      "poster_path": "\/k0q2zvtdHxL8HvsiHfCQhnPB7nO.jpg",
      "id": 251519,
      "adult": false,
      "backdrop_path": "\/omK35Mr3oks6bd5efrgsO7CzmLP.jpg",
      "original_language": "en",
      "original_title": "Son of Batman",
      "genre_ids": [
        28,
        12,
        16
      ],
      "title": "O Filho do Batman",
      "vote_average": 6.8,
      "overview": "Quando Batman descobre que tem um filho, Damian, que é neto de Ra’s Al Ghul, ele decide criar o menino, para evitar que ele se transforme no assassino que estava preparado para ser.",
      "release_date": "2014-04-20"
    },
    {
      "popularity": 7.745,
      "id": 464882,
      "video": false,
      "vote_count": 74,
      "vote_average": 6.3,
      "title": "Batman vs. Duas-Caras",
      "release_date": "2018-09-08",
      "original_language": "en",
      "original_title": "Batman vs. Two-Face",
      "genre_ids": [
        28,
        16,
        35
      ],
      "backdrop_path": "\/olwINcffzDRt8MMCamlptD3Hbjj.jpg",
      "adult": false,
      "overview": "Um dispositivo inventado para eliminar o mal das mentes criminosas falha e Harvey Dent, o promotor da cidade de Gotham, transforma-se na sinistra e dupla personalidade do Duas-Caras.",
      "poster_path": "\/sYMAc4BLMHVAXmt7VSEnDM97Sy1.jpg"
    },
    {
      "popularity": 12.388,
      "vote_count": 313,
      "video": false,
      "poster_path": "\/vZqD8QMXiZh977LipOsXQmaMM7l.jpg",
      "id": 45162,
      "adult": false,
      "backdrop_path": "\/bMNEElThWSUgzFUOn5SYU4eHYXG.jpg",
      "original_language": "en",
      "original_title": "Superman\/Batman: Apocalypse",
      "genre_ids": [
        28,
        12,
        16,
        878,
        10751
      ],
      "title": "Superman\/Batman: Apocalipse",
      "vote_average": 7,
      "overview": "Semanas depois dos eventos que levaram à prisão de Lex Luthor após o Impeachment na presidência dos Estados Unidos, e do sucesso de Batman em salvar o mundo do impacto de um meteoro, uma nave espacial cai na Baía de Gotham City. Estava a bordo uma jovem de aparência adolescente e que manifesta super-poderes idênticos ao do Superman ao ser perseguida por policiais e assustar a população.",
      "release_date": "2010-09-28"
    },
    {
      "popularity": 12.555,
      "id": 242643,
      "video": false,
      "vote_count": 554,
      "vote_average": 7.3,
      "title": "Batman: Ataque ao Arkham",
      "release_date": "2014-08-12",
      "original_language": "en",
      "original_title": "Batman: Assault on Arkham",
      "genre_ids": [
        53,
        16,
        28,
        80
      ],
      "backdrop_path": "\/rZhblFe1Y9IheA47fO3i0b0qdvt.jpg",
      "adult": false,
      "overview": "Bem-vindo ao coração sombrio de Gotham City. Do centro das sombras surge o Asilo Arkham, um depósito purulento de tudo que é vil, perigoso e delirante, com uma população que cresce exponencialmente graças ao Cavaleiro das Trevas. Mas quando Batman frustra o mais recente plano do Charada e uma importante parte de uma evidência precisa ser secretamente recuperada no Arkham, a solução vem de uma inesperada fonte: uma equipe secreta de ataque do governo montada no submundo de Gotham City. O assassino Pistoleiro lidera o Esquadrão Suicida: Arlequina, Nevasca, Capitão Bumerangue, Tubarão Rei e Aranha Negra, um bando de desonestos que conhecem o Asilo Arkham e seus residentes muitíssimo bem.",
      "poster_path": "\/gX2Uy1GnIB8bbeP7EfXBUxzGmqY.jpg"
    },
    {
      "popularity": 6.767,
      "vote_count": 16,
      "video": false,
      "poster_path": "\/bLDAx2dPpZdd5va0FcufxsgFiJw.jpg",
      "id": 602307,
      "adult": false,
      "backdrop_path": "\/sP0ELxnuwPlqq67iQAJaJ7zjJpw.jpg",
      "original_language": "en",
      "original_title": "LEGO DC: Batman - Family Matters",
      "genre_ids": [
        16,
        10751
      ],
      "title": "LEGO DC: Batman - Assunto de Família",
      "vote_average": 5.9,
      "overview": "Em LEGO DC: Batman - Family Matters, a suspeita está em alta depois que Batman, Batgirl, Robin e outros super-heróis da DC recebem convites misteriosos. No entanto, os valores da família devem permanecer fortes quando Batman e sua equipe encontram o vilão Red Hood, que é obcecado em destruir a família Bat e toda Gotham City.",
      "release_date": "2019-07-21"
    },
    {
      "popularity": 8.503,
      "id": 321528,
      "video": false,
      "vote_count": 395,
      "vote_average": 6.9,
      "title": "Batman vs. Robin",
      "release_date": "2015-04-14",
      "original_language": "en",
      "original_title": "Batman vs. Robin",
      "genre_ids": [
        28,
        12,
        16
      ],
      "backdrop_path": "\/oERfMmGc1GJRnC8IuFUH7zpR5z5.jpg",
      "adult": false,
      "overview": "Quando Damian Wayne assume o manto de Robin, ele passa a seguir um caminho de teimosia e imprudência ao lado de seu pai, o Batman. Enquanto investiga uma cena de crime, Robin encontra Talon, um sujeito misterioso que o leva até as profundezas de uma sociedade secreta de Gotham. Será uma jornada perigosa e que forçará Batman e Robin enfrentarem os seus adversário mais perigosos: um ao lado do outro.",
      "poster_path": "\/boH1xAl48O4XchAqGvCQaSdWudX.jpg"
    },
    {
      "popularity": 19.796,
      "vote_count": 449,
      "video": false,
      "poster_path": "\/lU17bOxUohNl03gfcPEBa8h7POi.jpg",
      "id": 69735,
      "adult": false,
      "backdrop_path": "\/hAhMOPPPxzCKsCu5rUMYdwS8Yb5.jpg",
      "original_language": "en",
      "original_title": "Batman: Year One",
      "genre_ids": [
        28,
        12,
        16,
        80,
        9648
      ],
      "title": "Batman: Ano Um",
      "vote_average": 7.2,
      "overview": "Bruce Wayne retorna para casa depois de anos de treinamento para se tornar um combatente do crime, enquanto o Tenente James Gordon se muda para Gotham e encontra a corrupção em todas as esferas da administração. Assim tem início a batalha de Wayne contra as famílias mafiosas e bandidos de Gotham, sem contar a polícia, que nos primórdios de Batman, atacam o morcego freneticamente.",
      "release_date": "2011-09-27"
    }
  ]
}